^D:\ONDRA\PROJEKTY\CPP\GOOGLETEST\SRC\GTEST-ALL.CC|D:\ONDRA\PROJEKTY\CPP\GOOGLETEST\SRC\GTEST_MAIN.CC
D:\ONDRA\PROJEKTY\CPP\UNITTESTING\GOOGLETEST\RELEASE\GOOGLETEST.PDB
D:\ONDRA\PROJEKTY\CPP\UNITTESTING\GOOGLETEST\RELEASE\GTEST_MAIN.OBJ
D:\ONDRA\PROJEKTY\CPP\UNITTESTING\GOOGLETEST\RELEASE\GTEST-ALL.OBJ
^D:\ONDRA\PROJEKTY\CPP\GOOGLETEST\SRC\GTEST-ALL.CC
D:\ONDRA\PROJEKTY\CPP\UNITTESTING\GOOGLETEST\RELEASE\GOOGLETEST.PDB
^D:\ONDRA\PROJEKTY\CPP\GOOGLETEST\SRC\GTEST_MAIN.CC
D:\ONDRA\PROJEKTY\CPP\UNITTESTING\GOOGLETEST\RELEASE\GOOGLETEST.PDB
D:\ONDRA\PROJEKTY\CPP\UNITTESTING\GOOGLETEST\RELEASE\GTEST_MAIN.OBJ
