^D:\ONDRA\PROJEKTY\CPP\EFFECTIVECPP\EFFECTIVECPP\RELEASE\0_4_CTORS.OBJ|D:\ONDRA\PROJEKTY\CPP\EFFECTIVECPP\EFFECTIVECPP\RELEASE\18_INTERFACES.OBJ|D:\ONDRA\PROJEKTY\CPP\EFFECTIVECPP\EFFECTIVECPP\RELEASE\2_3_CONST_ENUM.OBJ
D:\ONDRA\PROJEKTY\CPP\EFFECTIVECPP\RELEASE\EFFECTIVECPP.EXE
D:\ONDRA\PROJEKTY\CPP\EFFECTIVECPP\RELEASE\EFFECTIVECPP.IPDB
D:\ONDRA\PROJEKTY\CPP\EFFECTIVECPP\RELEASE\EFFECTIVECPP.IOBJ
D:\ONDRA\PROJEKTY\CPP\EFFECTIVECPP\RELEASE\EFFECTIVECPP.PDB
